{
    "apps": [
        {
            "name": "idms",
            "script": "./idms/app.js",
            "cwd": "/var/www/app/current/idms/",
            "merge_logs": true,
            "watch"     : false,
            "exec_mode" : "fork",
            "max_restarts": 20,
            "instances": 1,
            "env": {
                "PORT": 5000
            }
        },
        {
            "name": "api",
            "script": "./api/app.js",
            "cwd": "/var/www/app/current/api/",
            "merge_logs": true,
            "watch"     : false,
            "exec_mode" : "fork",
            "max_restarts": 20,
            "instances": 1,
            "env": {
                "PORT": 5001
            }
        },
        {
            "name": "soltec",
            "script": "./soltec/app.js",
            "cwd": "/var/www/app/current/soltec/",
            "merge_logs": true,
            "watch"     : false,
            "exec_mode" : "fork",
            "max_restarts": 20,
            "instances": 1,
            "env": {
                "PORT": 5002
            }
        }
    ]
}
