{
    "version": "1.0.0",
    "appName": "KalBlocks API",
    "apiBase": "/v1/",
    "appMail": "info@kalblocks.com",
    "port"   : 5001,
    "secret" : "C57A3FBB91215E15BBD949EE3DE4C",
    "authApi": "http://localhost:5000/v1",
    "api"    : "http://localhost:5001",
    "webApp" : "https://portal.soltec.si",
    "mongo": {
      "license": "mongodb://localhost:27017/license",
      "clients": "mongodb://localhost:27017/"
    },
    "reCaptchaSecretKey" : "6LepaA8UAAAAALMYckoehoC_g69lk_7sVOmu2VKP"
}
