{
  "name": "Soltec IDMS",
  "version": "1.0.0",
  "description": "Soltec IDMS API Server documentation",
  "title": "Soltec IDMS Server documentation",
  "url" : "https://idms.soltec.si",
  "sampleUrl": "https://idma.soltec.si",
  "template": {
  	"withCompare": false,
  	"withGenerator": true
  },
  "header": {
    "title": "Token",
    "filename": "documentation/template/tmpl/header.md"
  },
  "order": [
    "Test",
    "Authentication",
    "Login",
    "List",
    "Add",
    "Get",
    "Edit",
    "Publish",
    "Delete",
    "ResetMail",
    "ResetPwd"
  ]
}
