{
    "version": "1.0.0",
    "appName": "KalBlocks API",
    "apiBase": "/v1/",
    "appMail": "info@kalblocks.com",
    "port"   : 5001,
    "secret" : "C57A3FBB91215E15BBD949EE3DE4C",
    "authApi": "https://idms-dev.kalblocks.com/v1",
    "api"    : "https://api-dev.kalblocks.com/v1",
    "webApp" : "https://portal.soltec.si/",
    "mongo": {
      "license": "mongodb://kaladmin:TezkoGeslo123!@172.17.0.1:27017/license?authSource=admin",
      "clients": "mongodb://kaladmin:TezkoGeslo123!@172.17.0.1:27017/"
    },
    "reCaptchaSecretKey" : "6LepaA8UAAAAALMYckoehoC_g69lk_7sVOmu2VKP"
}
