{
  "name": "KalPass API",
  "version": "1.0.0",
  "description": "KalPass API documentation",
  "title": "KalPass API documentation",
  "url" : "https://pass-api-dev.kalblocks.com/",
  "sampleUrl": "https://pass-api-dev.kalblocks.com/",
  "template": {
  	"withCompare": false,
  	"withGenerator": true
  },
  "header": {
    "title": "Token",
    "filename": "documentation/template/tmpl/header.md"
  },
  "order": [
    "Test",
    "Nodes",
    "Groups",
    "Users"
  ]
}
