{
  "name": "KalBlocks API",
  "version": "2.0.0",
  "description": "KalBlocks API documentation",
  "title": "KalBlocks API documentation",
  "url" : "http://localhost:5001/v1",
  "sampleUrl": "http://localhost:5001/v1",
  "template": {
  	"withCompare": false,
  	"withGenerator": true
  },
  "header": {
    "title": "Token",
    "filename": "documentation/template/tmpl/header.md"
  },
  "order": [
    "Test",
    "Dashboard",
    "Homescreen",
    "Account",
    "Users",
    "Groups",
    "List",
    "Add",
    "Get",
    "Edit",
    "Publish",
    "Delete"
  ]
}
